[gd_scene load_steps=3 format=2]

[ext_resource path="res://assets/Amaranth-Regular.otf" type="DynamicFontData" id=1]

[sub_resource type="DynamicFont" id=1]
size = 22
font_data = ExtResource( 1 )

[node name="HighscoreEntryLabel" type="Label"]
margin_right = 40.0
margin_bottom = 14.0
custom_fonts/font = SubResource( 1 )
__meta__ = {
"_edit_use_anchors_": false
}
