[gd_scene load_steps=4 format=2]

[ext_resource path="res://assets/Amaranth-Regular.otf" type="DynamicFontData" id=1]

[sub_resource type="DynamicFont" id=3]
size = 40
font_data = ExtResource( 1 )

[sub_resource type="DynamicFont" id=2]
size = 40
font_data = ExtResource( 1 )

[node name="PauseMenu" type="Control"]
pause_mode = 2
visible = false
anchor_right = 1.0
anchor_bottom = 1.0
__meta__ = {
"_edit_use_anchors_": false
}

[node name="Overlay" type="ColorRect" parent="."]
anchor_right = 1.0
anchor_bottom = 1.0
color = Color( 0, 0, 0, 0.431373 )
__meta__ = {
"_edit_use_anchors_": false
}

[node name="Menu" type="VBoxContainer" parent="."]
anchor_right = 1.0
anchor_bottom = 1.0
size_flags_horizontal = 3
size_flags_vertical = 3
alignment = 1
__meta__ = {
"_edit_use_anchors_": false
}

[node name="Label" type="Label" parent="Menu"]
margin_top = 380.0
margin_right = 1600.0
margin_bottom = 420.0
custom_fonts/font = SubResource( 3 )
text = "Level: "
align = 1
__meta__ = {
"_edit_use_anchors_": false
}

[node name="ContinueButton" type="Button" parent="Menu"]
margin_top = 424.0
margin_right = 1600.0
margin_bottom = 470.0
custom_fonts/font = SubResource( 2 )
text = "Continue"
flat = true

[node name="ToMenuButton" type="Button" parent="Menu"]
margin_top = 474.0
margin_right = 1600.0
margin_bottom = 520.0
custom_fonts/font = SubResource( 2 )
text = "To Menu"
flat = true
